\relax 
\@writefile{toc}{\contentsline {section}{\numberline {1}Estetica}{2}}
\@writefile{toc}{\contentsline {subsection}{\numberline {1.1}Arquitectura}{2}}
\newlabel{Arquitectura}{{1.1}{2}}
\@writefile{toc}{\contentsline {section}{\numberline {2}Mongdb}{3}}
\@writefile{toc}{\contentsline {subsection}{\numberline {2.1}Install}{3}}
\newlabel{Install}{{2.1}{3}}
\@writefile{toc}{\contentsline {subsection}{\numberline {2.2}Creacion de la base de datos}{3}}
\newlabel{Creating database}{{2.2}{3}}
\@writefile{toc}{\contentsline {subsection}{\numberline {2.3}Interfaz grafica de nuestrabase de datos}{3}}
\newlabel{Creating database}{{2.3}{3}}
\@writefile{toc}{\contentsline {subsection}{\numberline {2.4}Insercion de datos}{4}}
\newlabel{Insert data}{{2.4}{4}}
\@writefile{toc}{\contentsline {subsection}{\numberline {2.5}Seguridad de nuestra base de datos}{4}}
\newlabel{Insert data}{{2.5}{4}}
\@writefile{toc}{\contentsline {section}{\numberline {3}Subir nuestro proyecto en nuestro servidor}{4}}
\@writefile{toc}{\contentsline {subsection}{\numberline {3.1}Creacion de nuestro repositorio}{4}}
\newlabel{Zero MQ Install}{{3.1}{4}}
\bibstyle{abbrv}
\bibdata{main}
\@writefile{toc}{\contentsline {subsection}{\numberline {3.2}Creacion de nuestro servidor}{5}}
\newlabel{Zero MQ Install}{{3.2}{5}}
\@writefile{toc}{\contentsline {subsubsection}{\numberline {3.2.1}Pair Pattern}{5}}
\newlabel{Pair Pattern}{{3.2.1}{5}}
\@writefile{toc}{\contentsline {subsubsection}{\numberline {3.2.2}Client/Server Pattern}{5}}
\newlabel{Client/Server Pattern}{{3.2.2}{5}}
\@writefile{toc}{\contentsline {subsubsection}{\numberline {3.2.3}Publish/Suscribe Pattern}{5}}
\newlabel{Publish/Suscribe Pattern}{{3.2.3}{5}}
\@writefile{toc}{\contentsline {subsubsection}{\numberline {3.2.4}Push/Pull Pattern}{5}}
\newlabel{Push/Pull Pattern}{{3.2.4}{5}}
